Diamonds
…
jems

## # A tibble: 53,940 x 10
##    carat cut       color clarity depth table price     x     y     z
##    <dbl> <chr>     <chr> <chr>   <dbl> <dbl> <dbl> <dbl> <dbl> <dbl>
##  1 0.23  Ideal     E     SI2      61.5    55   326  3.95  3.98  2.43
##  2 0.21  Premium   E     SI1      59.8    61   326  3.89  3.84  2.31
##  3 0.23  Good      E     VS1      56.9    65   327  4.05  4.07  2.31
##  4 0.290 Premium   I     VS2      62.4    58   334  4.2   4.23  2.63
##  5 0.31  Good      J     SI2      63.3    58   335  4.34  4.35  2.75
##  6 0.24  Very Good J     VVS2     62.8    57   336  3.94  3.96  2.48
##  7 0.24  Very Good I     VVS1     62.3    57   336  3.95  3.98  2.47
##  8 0.26  Very Good H     SI1      61.9    55   337  4.07  4.11  2.53
##  9 0.22  Fair      E     VS2      65.1    61   337  3.87  3.78  2.49
## 10 0.23  Very Good H     VS1      59.4    61   338  4     4.05  2.39
## #  with 53,930 more rows

# good and vvs2
jems %>% 
  filter(clarity == 'VVS2' & cut == 'Good')

## # A tibble: 286 x 10
##    carat cut   color clarity depth table price     x     y     z
##    <dbl> <chr> <chr> <chr>   <dbl> <dbl> <dbl> <dbl> <dbl> <dbl>
##  1  0.7  Good  H     VVS2     62.1    64  2767  5.62  5.65  3.5 
##  2  0.7  Good  E     VVS2     60.1    63  2857  5.68  5.71  3.42
##  3  0.7  Good  E     VVS2     63.6    62  2858  5.61  5.58  3.56
##  4  0.7  Good  F     VVS2     63.1    57  2940  5.59  5.66  3.55
##  5  0.71 Good  F     VVS2     58.2    60  2956  5.89  5.94  3.44
##  6  0.71 Good  F     VVS2     58.9    61  2960  5.8   5.9   3.44
##  7  0.5  Good  D     VVS2     62.4    64  3017  5.03  5.06  3.14
##  8  0.77 Good  H     VVS2     57.9    61  3027  6.07  6.01  3.5 
##  9  0.7  Good  G     VVS2     61.1    61  3046  5.67  5.69  3.47
## 10  0.72 Good  F     VVS2     61.3    65  3145  5.76  5.72  3.52
## #  with 276 more rows
…
#or
chD <-min(jems$price)

#- What is the range of diamond prices? - 
rangePrice <- range(jems$price)

#What is the average diamond price in each category of cut and color?
jems %>%
  group_by(cut, color) %>%
  summarise(avg = mean(price)) 

## `summarise()` regrouping output by 'cut' (override with `.groups` argument)

## # A tibble: 35 x 3
## # Groups:   cut [5]
##    cut   color   avg
##    <chr> <chr> <dbl>
##  1 Fair  D     4291.
##  2 Fair  E     3682.
##  3 Fair  F     3827.
##  4 Fair  G     4239.
##  5 Fair  H     5136.
##  6 Fair  I     4685.
##  7 Fair  J     4976.
##  8 Good  D     3405.
##  9 Good  E     3424.
## 10 Good  F     3496.
## #  with 25 more rows
…
#Exercise 8.8 (Applying transformations) Using the functions we discuss earlier, and in class, apply a log10 transformation to both the price and carat. You can save these as new columns in the data set called price_log10 and carat_log10.
#There is an issue with this way which is having many obj in env:
logPrice <- log10(jems$price) 
logCarat <- log10(jems$carat)
jems$carat_log10 <- logCarat
jems$price_log10 <- logPrice
# better way:
jems <-  jems %>% 
  mutate(logPrice = log10(price), 
         logCarat=log10(carat))
jems

## # A tibble: 53,940 x 14
##    carat cut   color clarity depth table price     x     y     z carat_log10
##    <dbl> <chr> <chr> <chr>   <dbl> <dbl> <dbl> <dbl> <dbl> <dbl>       <dbl>
##  1 0.23  Ideal E     SI2      61.5    55   326  3.95  3.98  2.43      -0.638
##  2 0.21  Prem E     SI1      59.8    61   326  3.89  3.84  2.31      -0.678
##  3 0.23  Good  E     VS1      56.9    65   327  4.05  4.07  2.31      -0.638
##  4 0.290 Prem I     VS2      62.4    58   334  4.2   4.23  2.63      -0.538
##  5 0.31  Good  J     SI2      63.3    58   335  4.34  4.35  2.75      -0.509
##  6 0.24  Very J     VVS2     62.8    57   336  3.94  3.96  2.48      -0.620
##  7 0.24  Very I     VVS1     62.3    57   336  3.95  3.98  2.47      -0.620
##  8 0.26  Very H     SI1      61.9    55   337  4.07  4.11  2.53      -0.585
##  9 0.22  Fair  E     VS2      65.1    61   337  3.87  3.78  2.49      -0.658
## 10 0.23  Very H     VS1      59.4    61   338  4     4.05  2.39      -0.638
## #  with 53,930 more rows, and 3 more variables: price_log10 <dbl>,
## #   logPrice <dbl>, logCarat <dbl>

jems %>% 
  add_column(logPrice2 = log10(jems$price))

## # A tibble: 53,940 x 15
##    carat cut   color clarity depth table price     x     y     z carat_log10
##    <dbl> <chr> <chr> <chr>   <dbl> <dbl> <dbl> <dbl> <dbl> <dbl>       <dbl>
##  1 0.23  Ideal E     SI2      61.5    55   326  3.95  3.98  2.43      -0.638
##  2 0.21  Prem E     SI1      59.8    61   326  3.89  3.84  2.31      -0.678
##  3 0.23  Good  E     VS1      56.9    65   327  4.05  4.07  2.31      -0.638
##  4 0.290 Prem I     VS2      62.4    58   334  4.2   4.23  2.63      -0.538
##  5 0.31  Good  J     SI2      63.3    58   335  4.34  4.35  2.75      -0.509
##  6 0.24  Very J     VVS2     62.8    57   336  3.94  3.96  2.48      -0.620
##  7 0.24  Very I     VVS1     62.3    57   336  3.95  3.98  2.47      -0.620
##  8 0.26  Very H     SI1      61.9    55   337  4.07  4.11  2.53      -0.585
##  9 0.22  Fair  E     VS2      65.1    61   337  3.87  3.78  2.49      -0.658
## 10 0.23  Very H     VS1      59.4    61   338  4     4.05  2.39      -0.638
## #  with 53,930 more rows, and 4 more variables: price_log10 <dbl>,
## #   logPrice <dbl>, logCarat <dbl>, logPrice2 <dbl>
…
jems

## # A tibble: 53,940 x 14
##    carat cut   color clarity depth table price     x     y     z carat_log10
##    <dbl> <chr> <chr> <chr>   <dbl> <dbl> <dbl> <dbl> <dbl> <dbl>       <dbl>
##  1 0.23  Ideal E     SI2      61.5    55   326  3.95  3.98  2.43      -0.638
##  2 0.21  Prem E     SI1      59.8    61   326  3.89  3.84  2.31      -0.678
##  3 0.23  Good  E     VS1      56.9    65   327  4.05  4.07  2.31      -0.638
##  4 0.290 Prem I     VS2      62.4    58   334  4.2   4.23  2.63      -0.538
##  5 0.31  Good  J     SI2      63.3    58   335  4.34  4.35  2.75      -0.509
##  6 0.24  Very J     VVS2     62.8    57   336  3.94  3.96  2.48      -0.620
##  7 0.24  Very I     VVS1     62.3    57   336  3.95  3.98  2.47      -0.620
##  8 0.26  Very H     SI1      61.9    55   337  4.07  4.11  2.53      -0.585
##  9 0.22  Fair  E     VS2      65.1    61   337  3.87  3.78  2.49      -0.658
## 10 0.23  Very H     VS1      59.4    61   338  4     4.05  2.39      -0.638
## #  with 53,930 more rows, and 3 more variables: price_log10 <dbl>,
## #   logPrice <dbl>, logCarat <dbl>
